qPCR data sets by Karlen et al. (2007) — karlen • karlen
…
cycle
PCR cycle.

fluor
Raw fluorescence values.

    Source

    doi:10.1186/1471-2105-8-131

    Examples

karlen
#> # A tibble: 28,680 × 11
#>    plate well  target dye   sample sample_type replicate copies dilution cycle
#>    <fct> <fct> <fct>  <fct> <fct>  <fct>       <fct>      <int>    <int> <dbl>
#>  1 CAV   A1    Cav1   SYBR  S1     std         1             NA        1     1
#>  2 CAV   A1    Cav1   SYBR  S1     std         1             NA        1     2
#>  3 CAV   A1    Cav1   SYBR  S1     std         1             NA        1     3
#>  4 CAV   A1    Cav1   SYBR  S1     std         1             NA        1     4
#>  5 CAV   A1    Cav1   SYBR  S1     std         1             NA        1     5
#>  6 CAV   A1    Cav1   SYBR  S1     std         1             NA        1     6
#>  7 CAV   A1    Cav1   SYBR  S1     std         1             NA        1     7
#>  8 CAV   A1    Cav1   SYBR  S1     std         1             NA        1     8
#>  9 CAV   A1    Cav1   SYBR  S1     std         1             NA        1     9
#> 10 CAV   A1    Cav1   SYBR  S1     std         1             NA        1    10
#> # ℹ 28,670 more rows
#> # ℹ 1 more variable: fluor <dbl>
…
